{
	"format_version": "1.8.0",
	"animations": {
		"animation.porygon2.ground_idle": {
			"loop": true,
			"bones": {
				"tail": {
					"rotation": [30, 0, 0]
				},
				"neck": {
					"rotation": [10, 0, 0]
				},
				"head": {
					"rotation": [-10, 0, 0]
				},
				"leg_left": {
					"rotation": [2.5, 0, 0]
				},
				"leg_right": {
					"rotation": [5, 0, 0]
				},
				"body": {
					"rotation": [7.5, 0, 0],
					"position": [0, 2, 0]
				}
			}
		},
		"animation.porygon2.blink": {
			"animation_length": 0.16667,
			"bones": {
				"pupil_left": {
					"position": {
						"0.0": [-0.25, 0, 0],
						"0.125": [-0.25, 0, 0],
						"0.1667": [0, 0, 0]
					}
				},
				"pupil_closed_left": {
					"position": {
						"0.0": [0.25, 0, 0],
						"0.125": [0.25, 0, 0],
						"0.1667": [0, 0, 0]
					}
				},
				"pupil_right": {
					"position": {
						"0.0": [0.25, 0, 0],
						"0.125": [0.25, 0, 0],
						"0.1667": [0, 0, 0]
					}
				},
				"pupil_closed_right": {
					"position": {
						"0.0": [-0.25, 0, 0],
						"0.125": [-0.25, 0, 0],
						"0.1667": [0, 0, 0]
					}
				}
			}
		}
	},
	"geckolib_format_version": 2
}