{
  "implemented": true,
  "name": "Klang",
  "nationalPokedexNumber": 600,
  "primaryType": "steel",
  "abilities": [
    "plus",
    "minus",
    "h:clearbody"
  ],
  "baseStats": {
    "hp": 60,
    "attack": 80,
    "defence": 95,
    "special_attack": 70,
    "special_defence": 85,
    "speed": 50
  },
  "catchRate": 60,
  "maleRatio": -1,
  "shoulderMountable": false,
  "baseExperienceYield": 154,
  "experienceGroup": "medium_slow",
  "eggCycles": 20,
  "eggGroups": [
    "mineral"
  ],
  "drops": {
    "amount": "1",
    "entries": [
      {
        "item": "minecraft:raw_iron",
        "quantityRange": "1-2",
        "percentage": 66
      }
    ]
  },
  "moves": [
    "1:charge",
    "1:geargrind",
    "1:thundershock",
    "1:visegrip",
    "21:bind",
    "26:chargebeam",
    "31:autotomize",
    "36:mirrorshot",
    "40:screech",
    "44:discharge",
    "48:metalsound",
    "52:shiftgear",
    "56:lockon",
    "60:zapcannon",
    "64:hyperbeam",
    "tm:allyswitch",
    "tm:assurance",
    "tm:chargebeam",
    "tm:confide",
    "tm:doubleteam",
    "tm:endure",
    "tm:facade",
    "tm:flashcannon",
    "tm:frustration",
    "tm:hiddenpower",
    "tm:hyperbeam",
    "tm:irondefense",
    "tm:powergem",
    "tm:protect",
    "tm:rest",
    "tm:return",
    "tm:rockpolish",
    "tm:rocksmash",
    "tm:round",
    "tm:sandstorm",
    "tm:screech",
    "tm:secretpower",
    "tm:sleeptalk",
    "tm:snore",
    "tm:substitute",
    "tm:swagger",
    "tm:thunderbolt",
    "tm:thunderwave",
    "tm:toxic",
    "tm:uproar",
    "tm:voltswitch",
    "tm:wildcharge",
    "tutor:allyswitch",
    "tutor:bind",
    "tutor:chargebeam",
    "tutor:gravity",
    "tutor:irondefense",
    "tutor:magiccoat",
    "tutor:magnetrise",
    "tutor:recycle",
    "tutor:risingvoltage",
    "tutor:shockwave",
    "tutor:signalbeam",
    "tutor:sleeptalk",
    "tutor:snore",
    "tutor:steelbeam",
    "tutor:steelroller",
    "tutor:telekinesis",
    "tutor:uproar"
  ],
  "labels": [
    "gen5"
  ],
  "pokedex": [
    "cobblemon.species.klang.desc"
  ],
  "preEvolution": "klink",
  "evolutions": [
    {
      "id": "klang_klinklang",
      "variant": "level_up",
      "result": "klinklang",
      "consumeHeldItem": false,
      "learnableMoves": [],
      "requirements": [
        {
          "variant": "level",
          "minLevel": 49
        }
      ]
    }
  ],
  "baseScale": 1,
  "hitbox": {
    "width": 1.5,
    "height": 1.5,
    "fixed": false
  },
  "baseFriendship": 50,
  "evYield": {
    "hp": 0,
    "attack": 0,
    "defence": 2,
    "special_attack": 0,
    "special_defence": 0,
    "speed": 0
  },
  "height": 6,
  "weight": 510,
  "aspects": [],
  "cannotDynamax": false
}