{
  "type": "minecraft:crafting_shaped",
  "pattern": [
    "C",
    "C",
    "C"
  ],
  "key": {
    "C": {
      "item": "minecraft:charcoal"
    }
  },
  "result": {
    "item": "cobblemon:charcoal_stick"
  }
}